<?xml version="1.0" encoding="utf-8"?>
<!-- Generator: Adobe Illustrator 17.1.0, SVG Export Plug-In . SVG Version: 6.00 Build 0)  -->
<!DOCTYPE svg PUBLIC "-//W3C//DTD SVG 1.1//EN" "http://www.w3.org/Graphics/SVG/1.1/DTD/svg11.dtd">
<svg version="1.1" xmlns="http://www.w3.org/2000/svg" xmlns:xlink="http://www.w3.org/1999/xlink" x="0px" y="0px"
	 viewBox="0 0 32 32" enable-background="new 0 0 32 32" xml:space="preserve">
<g id="Layer_1">
</g>
<g id="outline">
	<g>
		<path fill="#FBC91B" d="M15.9,31.5c0,0.1-4.5-1.8-6.2-2.6C7.9,28,7.5,27,6.4,25c-1-1.7-4.7-13.2-5.3-18c1.1-2.2,8.3-7,14.7-7L16,0
			c6.4,0,13.6,4.8,14.7,7c-0.6,4.9-4.3,16.4-5.3,18c-1.1,1.9-1.5,2.9-3.3,3.8C20.4,29.7,15.9,31.6,15.9,31.5z"/>
		<g>
			<path fill="#F9ED32" d="M7.7,7.2c-2.2,0-4.4,0.3-6.4,0.9C2.2,13.4,5.4,23.5,6.4,25C7.5,27,7.9,28,9.7,28.9
				c1.7,0.8,6.2,2.8,6.2,2.6c0,0.1,4.5-1.9,6.2-2.7c1.8-0.9,2.2-1.9,3.3-3.8c0.4-0.7,1.3-3,2.2-5.8C23.8,12,16.3,7.2,7.7,7.2z"/>
		</g>
		<path fill="#231F20" d="M16,0l-0.2,0.1C9.4,0.1,2.1,4.9,1.1,7c0.6,4.9,4.3,16.4,5.3,18C7.5,27,7.9,28,9.7,28.9
			c1.7,0.8,6.2,2.8,6.2,2.6c0,0.1,4.5-1.9,6.2-2.7c1.8-0.9,2.2-1.9,3.3-3.8c1-1.7,4.7-13.2,5.3-18C29.6,4.8,22.4,0,16,0z M23.5,23.8
			c-0.2,0.3-0.3,0.6-0.5,0.8c-0.7,1.3-1,1.7-2,2.2c-1.3,0.6-4.1,1.9-5.2,2.3c-1.1-0.4-3.9-1.6-5.2-2.3c-1-0.5-1.2-0.9-2-2.2
			c-0.1-0.3-0.3-0.5-0.5-0.8c-0.7-1.2-4-11.2-4.8-16.1c1.4-1.6,7.2-5.3,12.3-5.3H16l0.2-0.1C21.3,2.4,26.9,6,28.3,7.6
			C27.5,12.6,24.2,22.6,23.5,23.8z"/>
	</g>
</g>
</svg>
